module github.com/jech/galene

go 1.16

require (
	github.com/at-wat/ebml-go v0.16.0
	github.com/golang-jwt/jwt/v4 v4.4.2
	github.com/google/uuid v1.3.0 // indirect
	github.com/gorilla/websocket v1.5.0
	github.com/jech/cert v0.0.0-20210819231831-aca735647728
	github.com/jech/samplebuilder v0.0.0-20220417174833-7353a593563a
	github.com/pion/datachannel v1.5.2 // indirect
	github.com/pion/dtls/v2 v2.1.5 // indirect
	github.com/pion/ice/v2 v2.2.7
	github.com/pion/interceptor v0.1.12 // indirect
	github.com/pion/logging v0.2.2 // indirect
	github.com/pion/mdns v0.0.5 // indirect
	github.com/pion/randutil v0.1.0 // indirect
	github.com/pion/rtcp v1.2.10
	github.com/pion/rtp v1.7.13
	github.com/pion/sctp v1.8.2 // indirect
	github.com/pion/sdp/v3 v3.0.6
	github.com/pion/srtp/v2 v2.0.10 // indirect
	github.com/pion/stun v0.3.5 // indirect
	github.com/pion/transport v0.13.1 // indirect
	github.com/pion/turn/v2 v2.0.8
	github.com/pion/udp v0.1.1 // indirect
	github.com/pion/webrtc/v3 v3.1.43
	golang.org/x/crypto v0.0.0-20220829220503-c86fa9a7ed90
	golang.org/x/net v0.0.0-20220909164309-bea034e7d591 // indirect
	golang.org/x/sys v0.0.0-20220909162455-aba9fc2a8ff2
)
